{
  "project_info": {
    "project_number": "690931741219",
    "project_id": "nibmjobportal",
    "storage_bucket": "nibmjobportal.appspot.com"
  },
  "client": [
    {
      "client_info": {
        "mobilesdk_app_id": "1:690931741219:android:9552177a257f8affedf796",
        "android_client_info": {
          "package_name": "com.devmonks.nibmjobportal"
        }
      },
      "oauth_client": [
        {
          "client_id": "690931741219-eblrr4jbi9enim5mqk2cm0rocssege7m.apps.googleusercontent.com",
          "client_type": 1,
          "android_info": {
            "package_name": "com.devmonks.nibmjobportal",
            "certificate_hash": "0a257fca1572283d04fdf21f643989b7d65fdaf8"
          }
        },
        {
          "client_id": "690931741219-ce4bv8fbijh4sj1vspoa717da135rfbo.apps.googleusercontent.com",
          "client_type": 3
        }
      ],
      "api_key": [
        {
          "current_key": "AIzaSyDx-J0q-QE4CVP_UpZxYMmJ04QKewtIVB8"
        }
      ],
      "services": {
        "appinvite_service": {
          "other_platform_oauth_client": [
            {
              "client_id": "690931741219-ce4bv8fbijh4sj1vspoa717da135rfbo.apps.googleusercontent.com",
              "client_type": 3
            }
          ]
        }
      }
    },
    {
      "client_info": {
        "mobilesdk_app_id": "1:690931741219:android:45e23a56371ca774edf796",
        "android_client_info": {
          "package_name": "com.devmonks.nibmjobportal.dev"
        }
      },
      "oauth_client": [
        {
          "client_id": "690931741219-ce4bv8fbijh4sj1vspoa717da135rfbo.apps.googleusercontent.com",
          "client_type": 3
        }
      ],
      "api_key": [
        {
          "current_key": "AIzaSyDx-J0q-QE4CVP_UpZxYMmJ04QKewtIVB8"
        }
      ],
      "services": {
        "appinvite_service": {
          "other_platform_oauth_client": [
            {
              "client_id": "690931741219-ce4bv8fbijh4sj1vspoa717da135rfbo.apps.googleusercontent.com",
              "client_type": 3
            }
          ]
        }
      }
    },
    {
      "client_info": {
        "mobilesdk_app_id": "1:690931741219:android:52ef21bc3fb890daedf796",
        "android_client_info": {
          "package_name": "com.devmonks.nibmjobportal.live"
        }
      },
      "oauth_client": [
        {
          "client_id": "690931741219-ce4bv8fbijh4sj1vspoa717da135rfbo.apps.googleusercontent.com",
          "client_type": 3
        }
      ],
      "api_key": [
        {
          "current_key": "AIzaSyDx-J0q-QE4CVP_UpZxYMmJ04QKewtIVB8"
        }
      ],
      "services": {
        "appinvite_service": {
          "other_platform_oauth_client": [
            {
              "client_id": "690931741219-ce4bv8fbijh4sj1vspoa717da135rfbo.apps.googleusercontent.com",
              "client_type": 3
            }
          ]
        }
      }
    },
    {
      "client_info": {
        "mobilesdk_app_id": "1:690931741219:android:5a88bcddec429417edf796",
        "android_client_info": {
          "package_name": "com.devmonks.nibmjobportal.qa"
        }
      },
      "oauth_client": [
        {
          "client_id": "690931741219-ce4bv8fbijh4sj1vspoa717da135rfbo.apps.googleusercontent.com",
          "client_type": 3
        }
      ],
      "api_key": [
        {
          "current_key": "AIzaSyDx-J0q-QE4CVP_UpZxYMmJ04QKewtIVB8"
        }
      ],
      "services": {
        "appinvite_service": {
          "other_platform_oauth_client": [
            {
              "client_id": "690931741219-ce4bv8fbijh4sj1vspoa717da135rfbo.apps.googleusercontent.com",
              "client_type": 3
            }
          ]
        }
      }
    },
    {
      "client_info": {
        "mobilesdk_app_id": "1:690931741219:android:a2db906af22bfb10edf796",
        "android_client_info": {
          "package_name": "com.devmonks.nibmjobportal.uat"
        }
      },
      "oauth_client": [
        {
          "client_id": "690931741219-ce4bv8fbijh4sj1vspoa717da135rfbo.apps.googleusercontent.com",
          "client_type": 3
        }
      ],
      "api_key": [
        {
          "current_key": "AIzaSyDx-J0q-QE4CVP_UpZxYMmJ04QKewtIVB8"
        }
      ],
      "services": {
        "appinvite_service": {
          "other_platform_oauth_client": [
            {
              "client_id": "690931741219-ce4bv8fbijh4sj1vspoa717da135rfbo.apps.googleusercontent.com",
              "client_type": 3
            }
          ]
        }
      }
    }
  ],
  "configuration_version": "1"
}